{
	"compilerOptions": {
		"module": "commonjs",
		"target": "esnext",
		"jsx": "react",
		"sourceMap": true,
		"lib": ["dom", "esnext"],
		"strict": true,
		"noEmit": true,
		"isolatedModules": true,
		"esModuleInterop": true,
		"noUnusedLocals": false
	},
	"exclude": ["node_modules", "public", ".cache"]
}
